[
  {
    "id": 1211212,
    "key": "TMS-WEB-APP",
    "name": "Timesheet Web APP",
    "startDate": "2021-01-01",
    "endDate": "2021-12-31",
    "status": "Open",
    "tasks": [
      {
        "id": 42342,
        "subject": "Create APP Front End",
        "startDate": "2021-01-01",
        "endDate": "2021-12-31",
        "status": "Open",
        "assignee": {
          "id": 11231,
          "username": "usernameOne",
          "profile": "EMPLOYEE"
        }
      },
      {
        "id": 42344,
        "subject": "Create APP BackEnd",
        "startDate": "2021-01-01",
        "endDate": "2021-12-31",
        "status": "Open",
        "assignee": {
          "id": 11231,
          "username": "usernameOne",
          "profile": "EMPLOYEE"
        }
      },
      {
        "id": 42345,
        "subject": "Create APP Front End Tests",
        "startDate": "2021-01-01",
        "endDate": "2021-12-31",
        "status": "Open",
        "assignee": {
          "id": 11231,
          "username": "usernameOne",
          "profile": "EMPLOYEE"
        }
      },
      {
        "id": 42346,
        "subject": "Create APP BackEnd Tests",
        "startDate": "2021-01-01",
        "endDate": "2021-12-31",
        "status": "Open",
        "assignee": {
          "id": 11231,
          "username": "usernameOne",
          "profile": "EMPLOYEE"
        }
      }
    ]
  },
  {
    "id": 2345334,
    "key": "TMS-ANDROID-APP",
    "name": "Timesheet Android APP",
    "startDate": "2021-01-01",
    "endDate": "2021-12-31",
    "status": "Open",
    "tasks": [
      {
        "id": 42342,
        "subject": "Create UI",
        "startDate": "2021-01-01",
        "endDate": "2021-12-31",
        "status": "Open",
        "assignee": {
          "id": 11231,
          "username": "usernameOne",
          "profile": "EMPLOYEE"
        }
      },
      {
        "id": 42344,
        "subject": "Create BackEnd",
        "startDate": "2021-01-01",
        "endDate": "2021-12-31",
        "status": "Open",
        "assignee": {
          "id": 11231,
          "username": "usernameOne",
          "profile": "EMPLOYEE"
        }
      },
      {
        "id": 42345,
        "subject": "Create UI Tests",
        "startDate": "2021-01-01",
        "endDate": "2021-12-31",
        "status": "Open",
        "assignee": {
          "id": 11231,
          "username": "usernameOne",
          "profile": "EMPLOYEE"
        }
      },
      {
        "id": 42346,
        "subject": "Create BackEnd Tests",
        "startDate": "2021-01-01",
        "endDate": "2021-12-31",
        "status": "Open",
        "assignee": {
          "id": 11231,
          "username": "usernameOne",
          "profile": "EMPLOYEE"
        }
      }
    ]
  },
  {
    "id": 87347834,
    "key": "TMS-IOS-APP",
    "name": "Timesheet IO APP",
    "startDate": "2021-01-01",
    "endDate": "2021-12-31",
    "status": "Open",
    "tasks": [
      {
        "id": 42342,
        "subject": "Create UI",
        "startDate": "2021-01-01",
        "endDate": "2021-12-31",
        "status": "Open",
        "assignee": {
          "id": 11231,
          "username": "usernameTwo",
          "profile": "EMPLOYEE"
        }
      },
      {
        "id": 42344,
        "subject": "Create BackEnd",
        "startDate": "2021-01-01",
        "endDate": "2021-12-31",
        "status": "Open",
        "assignee": {
          "id": 11231,
          "username": "usernameTwo",
          "profile": "EMPLOYEE"
        }
      },
      {
        "id": 42345,
        "subject": "Create UI Tests",
        "startDate": "2021-01-01",
        "endDate": "2021-12-31",
        "status": "Open",
        "assignee": {
          "id": 11231,
          "username": "usernameTwo",
          "profile": "EMPLOYEE"
        }
      },
      {
        "id": 42346,
        "subject": "Create BackEnd Tests",
        "startDate": "2021-01-01",
        "endDate": "2021-12-31",
        "status": "Open",
        "assignee": {
          "id": 11231,
          "username": "usernameTwo",
          "profile": "EMPLOYEE"
        }
      }
    ]
  }
]
